[
  {
    "type": 1,
    "title": "Data",
    "key": "dataCategory"
  },
  {
    "type": 2,
    "title": "Dapatkah Anda memperbaiki data yang keliru?",
    "summary": "Ya, beberapa data dapat diperbaiki dalam beberapa kasus, tapi anda akan lebih sering melihat data sebenarnya. Saya mencoba untuk dapat memperbaiki beberapa, tapi tidak bisa dikarenakan oleh manufaktur",
    "key": "dataInfo1"
  },
  {
    "type": 1,
    "title": "Perijinan",
    "key": "permissionsCategory"
  },
  {
    "type": 2,
    "title": "Mengapa perijinan Status Telepon diperlukan?",
    "summary": "Karena itu digunakan untuk membaca nomor IMEI",
    "key": "permissionInfo1"
  },
  {
    "type": 2,
    "title": "Mengapa perijinan lokasi diperlukan?",
    "summary": "Karena itu digunakan untuk menampilkan detail tentang koneksi Wi-Fi",
    "key": "permissionInfo2"
  },
  {
    "type": 2,
    "title": "Bisakah Saya menolak semua perijinan?",
    "summary": "Ya, Tapi untuk data tertentu mungkin akan tampil sebagai tidak tersedia",
    "key": "permissionInfo3"
  },
  {
    "type": 1,
    "title": "System",
    "key": "systemCategory"
  },
  {
    "type": 2,
    "title": "Mengapa data ‘Rilis Dengan’ keliru?",
    "summary": "Info ini mungkin tidak tersedia jika anda menggunakan ROM custom atau manufaktur tidak menambahkannya ke sistem",
    "key": "systemInfo1"
  },
  {
    "type": 2,
    "title": "Bisakah Saya melihat informasi lebih tentang versi kernel dari perangkat saya?",
    "summary": "Ketuk ‘Versi Kernel‘ untuk info detail. jika tidak terjadi apapun selama mengetuk, maka data ini tidak tersedia untuk perangkat anda",
    "key": "systemInfo2"
  },
  {
    "type": 1,
    "title": "Perangkat Keras",
    "key": "hardwareCategory"
  },
  {
    "type": 2,
    "title": "Hampir semua info tentang GPU tampil ‘Tidak Tersedia’, dapatkah diperbaiki?",
    "summary": "Di beberapa kasus, ini disebabkan oleh SELinux yang mencegah aplikasi pihak ketiga membaca informasi GPU jika di set ke ‘Enforcing’. Jadi Kemungkinannya tidak bisa",
    "key": "harwareInfo1"
  },
  {
    "type": 1,
    "title": "Lainnya",
    "key": "otherCategory"
  },
  {
    "type": 2,
    "title": "Apakah ada easter egg di aplikasi?",
    "summary": "Ya",
    "key": "otherInfo1"
  }
]
